2019-12-05 10:02:10.0786 INFO HelloWorld
2019-12-05 11:13:06.7843 ERROR Error : Object reference not set to an instance of an object. 
2019-12-05 16:56:44.3651 INFO Ping : Input : {"Username":"?","Password":"?"}
2019-12-05 16:56:44.4404 ERROR Ping : Error : Unable to cast object of type 'SimRegistrationAPI.Models.CommonModel' to type 'SimRegistrationAPI.Models.PingReturn'.
2019-12-05 16:56:44.4404 INFO Ping : Output : {"Return":{"ResultCode":2,"ErrorCode":1000,"ErrorDescription":"Unable to cast object of type 'SimRegistrationAPI.Models.CommonModel' to type 'SimRegistrationAPI.Models.PingReturn'."}}
2019-12-05 16:56:49.9447 INFO Ping : Input : {"Username":"","Password":""}
2019-12-05 16:56:49.9733 ERROR Ping : Error : Unable to cast object of type 'SimRegistrationAPI.Models.CommonModel' to type 'SimRegistrationAPI.Models.PingReturn'.
2019-12-05 16:56:49.9733 INFO Ping : Output : {"Return":{"ResultCode":2,"ErrorCode":1000,"ErrorDescription":"Unable to cast object of type 'SimRegistrationAPI.Models.CommonModel' to type 'SimRegistrationAPI.Models.PingReturn'."}}
2019-12-05 16:57:00.8073 INFO Ping : Input : {"Username":"1","Password":"1"}
2019-12-05 16:57:00.8374 ERROR Ping : Error : Unable to cast object of type 'SimRegistrationAPI.Models.CommonModel' to type 'SimRegistrationAPI.Models.PingReturn'.
2019-12-05 16:57:00.8424 INFO Ping : Output : {"Return":{"ResultCode":2,"ErrorCode":1000,"ErrorDescription":"Unable to cast object of type 'SimRegistrationAPI.Models.CommonModel' to type 'SimRegistrationAPI.Models.PingReturn'."}}
2019-12-05 16:57:11.8542 INFO Ping : Input : {"Username":"1","Password":"1"}
2019-12-05 16:58:09.8023 ERROR Ping : Error : Unable to cast object of type 'SimRegistrationAPI.Models.CommonModel' to type 'SimRegistrationAPI.Models.PingReturn'.
2019-12-05 16:58:09.8093 INFO Ping : Output : {"Return":{"ResultCode":2,"ErrorCode":1000,"ErrorDescription":"Unable to cast object of type 'SimRegistrationAPI.Models.CommonModel' to type 'SimRegistrationAPI.Models.PingReturn'."}}
2019-12-05 16:59:28.7089 INFO Ping : Input : {"Username":"1","Password":"1"}
2019-12-05 16:59:31.5192 INFO Ping : Output : {"Return":{"ResultCode":1,"ErrorCode":1004,"ErrorDescription":"Username or Password does not match!"}}
2019-12-05 16:59:49.7212 INFO Ping : Input : {"Username":"administrator","Password":"Vectone@123"}
2019-12-05 16:59:54.9857 INFO Ping : Output : {"Return":{"ResultCode":0,"ErrorCode":null,"ErrorDescription":null}}
2019-12-05 17:14:51.7419 INFO Ping : Input : {"Lang":"","Username":"?","Password":"?"}
2019-12-05 17:15:20.8069 INFO Ping : Output : {"Return":{"ResultCode":1,"ErrorCode":1004,"ErrorDescription":"Username or Password does not match!"}}
2019-12-05 17:15:45.1965 INFO Ping : Input : {"Username":"?","Password":"?","Lang":""}
2019-12-05 17:16:03.8943 INFO Ping : Output : {"Return":{"ResultCode":1,"ErrorCode":1004,"ErrorDescription":"Username or Password does not match!"}}
2019-12-05 17:19:22.2218 INFO Ping : Input : {"Username":"?","Password":"?","Lang":"?"}
2019-12-05 17:20:28.1219 INFO Ping : Input : {"Username":"?","Password":"?","Lang":"?"}
2019-12-05 17:21:18.7660 INFO Ping : Output : {"Return":{"ResultCode":1,"ErrorCode":1004,"ErrorDescription":"Username or Password does not match!"}}
2019-12-05 21:16:30.3458 INFO Ping : Input : {"username":"administrator","password":"Vectone@123"}
2019-12-05 21:16:48.8796 INFO Ping : Output : {"resultCodeSpecified":false,"errorCodeSpecified":false,"errorDescription":null}
2019-12-05 21:17:23.8564 INFO Ping : Input : {"username":"administrator","password":"Vectone@123"}
2019-12-05 21:17:33.2643 INFO Ping : Output : {"resultCodeSpecified":false,"errorCodeSpecified":false,"errorDescription":null}
2019-12-05 21:18:12.6557 INFO Ping : Input : {"username":"administrator","password":"Vectone@123"}
2019-12-05 21:18:23.3706 INFO Ping : Output : {"resultCodeSpecified":false,"errorCodeSpecified":false,"errorDescription":"Test"}
2019-12-05 21:19:59.6320 INFO Ping : Input : {"username":"administrator","password":"Vectone@123"}
2019-12-05 21:20:11.2492 INFO Ping : Output : {"resultCodeSpecified":false,"errorCode":0,"errorCodeSpecified":true,"errorDescription":null}
2019-12-05 21:22:41.1153 INFO Ping : Input : {"username":"administrator","password":""}
2019-12-05 21:22:48.5701 INFO Ping : Output : {"resultCode":1,"resultCodeSpecified":true,"errorCode":1003,"errorCodeSpecified":true,"errorDescription":"Password is required!"}
2019-12-05 21:24:34.8611 INFO Ping : Input : {"username":"?","password":"?"}
2019-12-05 21:24:39.1005 INFO Ping : Output : {"resultCode":1,"resultCodeSpecified":true,"errorCode":1004,"errorCodeSpecified":true,"errorDescription":"Username or Password does not match!"}
2019-12-05 21:31:33.6790 INFO Ping : Input : {"username":"?","password":"?"}
2019-12-05 21:31:34.8514 INFO Ping : Output : {"resultCode":1,"resultCodeSpecified":true,"errorCode":1004,"errorCodeSpecified":true,"errorDescription":"Username or Password does not match!"}
