04-10-2019 19:43:26: 4368860007969--0:345704505.
04-10-2019 19:43:27: 4368860007969--0:345704506.
04-10-2019 19:43:28: 4368860007969--0:345704508.
04-10-2019 20:31:21: The remote server returned an error: (500) Internal Server Error..
04-10-2019 21:52:53: The remote server returned an error: (500) Internal Server Error..
04-10-2019 22:10:48: 4368860007969--0:345724116.
04-10-2019 22:27:34: 4368860007969--0:345727586.
