2018-10-15 19:08:24.1624 INFO Process Started
2018-10-15 19:08:33.0104 INFO TariffAutomationSitecodeWiseMTMinSummary()
2018-10-15 19:13:02.1341 INFO No of records : 56
2018-10-15 19:13:02.1936 INFO docName : E:\Moorthy\UserHome\PaymonthlySummaryReport\PaymonthlySummaryReport\PaymonthlySummaryReportConsole\bin\Debug\XLSX\MTMinutesSitecodeSummaryReport_14Oct2018_1913.xlsx
2018-10-15 19:25:40.2696 INFO Date Count : 14
2018-10-15 19:39:45.8276 INFO Date Count : 14
2018-10-15 19:42:05.7539 INFO Date Count : 14
