28/12/2017 10:04:27 => SubmitReceiptIn()
28/12/2017 10:04:27 => requestXML : <?xml version="1.0" encoding="utf-16"?>
<request timestamp="20171228220427" type="receipt-in">
  <merchantid />
  <account />
  <orderid>DC-AUT005-RX-1920710</orderid>
  <autosettle flag="1" />
  <amount currency="USD">500</amount>
  <payerref>0800040</payerref>
  <paymentmethod>Sanjey795135</paymentmethod>
  <sha1hash>e624b4d5702fff6c8754d08d982ab3668afa786a</sha1hash>
  <tssinfo>
    <custnum>noreplay@vectone.com</custnum>
    <prodid>0800040</prodid>
  </tssinfo>
</request>
