2019-12-11 18:51:51.5205 INFO cancel : Input : {"username":"administrator","password":"Vectone@123","transactionId":"TTTA20009627720","timestamp":"2019-12-09 10:22:26","lang":"de"}
2019-12-11 19:02:54.7525 INFO Cancel : SP Output : [{"errcode":-1,"errmsg":"Fehler"}]
2019-12-11 19:02:59.5360 INFO cancel : Output : {"resultCode":-1,"resultCodeSpecified":true,"errorCode":1006,"errorCodeSpecified":true,"errorDescription":"Fehler","transactionId":"TTTA20009627720","registrationData":null}
2019-12-11 19:03:03.8526 INFO cancel : Input : {"username":"administrator","password":"Vectone@123","transactionId":"TTTA20009627720","timestamp":"2019-12-09 10:22:26","lang":"de"}
2019-12-11 19:03:04.9847 INFO Cancel : SP Output : [{"errcode":-1,"errmsg":"Fehler"}]
2019-12-11 19:03:04.9988 INFO cancel : Output : {"resultCode":-1,"resultCodeSpecified":true,"errorCode":1006,"errorCodeSpecified":true,"errorDescription":"Fehler","transactionId":"TTTA20009627720","registrationData":null}
2019-12-11 19:05:53.6048 INFO getRegistrationData : Input : {"username":"administrator","password":"Vectone@123","retailer":"Tobaccoland","transactionId":"TTTA20009627720","timestamp":"2019-12-10 14:46:02","terminalId":"12345","callId":"4368860083565","lang":"de"}
2019-12-11 19:05:54.7167 INFO GetRegistrationData : SP Output : [{"errcode":0,"fieldLabel":"Vorname","fieldName":"firstName","fieldType":"STRING","fieldOptions":null,"fieldRequired":"Y","fieldValidation":"^.{1,60}$"},{"errcode":0,"fieldLabel":"Familienname","fieldName":"lastName","fieldType":"STRING","fieldOptions":null,"fieldRequired":"Y","fieldValidation":"^.{1,60}$"},{"errcode":0,"fieldLabel":"Adresse","fieldName":"address","fieldType":"STRING","fieldOptions":null,"fieldRequired":"Y","fieldValidation":"^.{1,250}$"},{"errcode":0,"fieldLabel":"Postleitzahl","fieldName":"postcode","fieldType":"STRING","fieldOptions":null,"fieldRequired":"Y","fieldValidation":"^.{1,50}$"},{"errcode":0,"fieldLabel":"Ausweisart","fieldName":"identityCardType","fieldType":"LIST","fieldOptions":"ID-Karte,Raisepass,Führerschein","fieldRequired":"Y","fieldValidation":"\\b(?:ID-Karte|Raisepass|Führerschein)\\b"},{"errcode":0,"fieldLabel":"Personalausweisnummer","fieldName":"identityCardNum","fieldType":"STRING","fieldOptions":null,"fieldRequired":"Y","fieldValidation":"^.{1,150}$"}]
2019-12-11 19:05:54.9958 INFO getRegistrationData : Output : {"resultCode":0,"resultCodeSpecified":true,"errorCodeSpecified":false,"errorDescription":null,"transactionId":"TTTA20009627720","registrationData":[{"fieldLabel":"Vorname","fieldName":"firstName","fieldType":"STRING","fieldOptions":null,"fieldRequired":"Y","fieldValidation":"^.{1,60}$"},{"fieldLabel":"Familienname","fieldName":"lastName","fieldType":"STRING","fieldOptions":null,"fieldRequired":"Y","fieldValidation":"^.{1,60}$"},{"fieldLabel":"Adresse","fieldName":"address","fieldType":"STRING","fieldOptions":null,"fieldRequired":"Y","fieldValidation":"^.{1,250}$"},{"fieldLabel":"Postleitzahl","fieldName":"postcode","fieldType":"STRING","fieldOptions":null,"fieldRequired":"Y","fieldValidation":"^.{1,50}$"},{"fieldLabel":"Ausweisart","fieldName":"identityCardType","fieldType":"LIST","fieldOptions":"ID-Karte,Raisepass,Führerschein","fieldRequired":"Y","fieldValidation":"\\b(?:ID-Karte|Raisepass|Führerschein)\\b"},{"fieldLabel":"Personalausweisnummer","fieldName":"identityCardNum","fieldType":"STRING","fieldOptions":null,"fieldRequired":"Y","fieldValidation":"^.{1,150}$"}]}
