2018-04-19 09:12:51.3751 INFO Execute Payment Controller
2018-04-19 09:12:52.3474 INFO Input : {
  "amount": 10.00,
  "amazon_order_reference_id": "P02-0131013-7852708",
  "mobileno": "447574524619",
  "country": "UK",
  "currency": "GBP",
  "account_type": "1",
  "email": "vinayakchadha@gmail.com",
  "ip_payment_agent": "155.145.208.133",
  "ip_payment_client": "155.145.208.133",
  "last6digitccno": null,
  "csreasoncode": null,
  "productcode": null,
  "retry": true,
  "devicetype": "WEB",
  "autotopup": null,
  "referencecode": null
}
2018-04-19 09:13:03.2985 INFO PaymentConfigInfo : {
  "sitecode": "MCM",
  "payment_agent": "PP",
  "payment_mode": "PPP",
  "iccid": null,
  "brand_type": "VMUK",
  "brand": 1,
  "currency": "GBP",
  "orderid": "13682",
  "errcode": 0,
  "errmsg": "Success"
}
2018-04-19 09:13:11.3116 INFO orderId : VMUK-WEB-10-AMZ-13682
2018-04-19 09:14:26.8533 INFO Execute Payment Controller
2018-04-19 09:14:26.8533 INFO Input : {
  "amount": 10.00,
  "amazon_order_reference_id": "P02-8165415-4325463",
  "mobileno": "447574761327",
  "country": "UK",
  "currency": "GBP",
  "account_type": "1",
  "email": "P_vajda@yahoo.co.uk",
  "ip_payment_agent": "2.124.245.32",
  "ip_payment_client": "2.124.245.32",
  "last6digitccno": null,
  "csreasoncode": null,
  "productcode": null,
  "retry": false,
  "devicetype": "WEB",
  "autotopup": null,
  "referencecode": null
}
2018-04-19 09:16:57.8823 INFO PaymentConfigInfo : {
  "sitecode": "MCM",
  "payment_agent": "PP",
  "payment_mode": "PPP",
  "iccid": null,
  "brand_type": "VMUK",
  "brand": 1,
  "currency": "GBP",
  "orderid": "13683",
  "errcode": 0,
  "errmsg": "Success"
}
2018-04-19 09:16:57.8823 INFO orderId : VMUK-WEB-10-AMZ-13683
2018-04-19 09:16:59.5107 ERROR SetOrderReferenceDetails API call Failed
{
  "ErrorResponse": {
    "@xmlns": "http://mws.amazonservices.com/schema/OffAmazonPayments/2013-01-01",
    "Error": {
      "Type": "Sender",
      "Code": "OrderReferenceNotModifiable",
      "Message": "OrderReference P02-8165415-4325463 is not in draft state and cannot be modified with the request submitted by you."
    },
    "RequestId": "ff7c2893-ce2f-4241-a316-c5a1e8d0cab6"
  }
}
2018-04-19 09:16:59.5147 ERROR OrderReferenceNotModifiable==>OrderReference P02-8165415-4325463 is not in draft state and cannot be modified with the request submitted by you.
2018-04-19 09:16:59.5147 INFO Output : {
  "transaction_id": null,
  "order_id": "VMUK-WEB-10-AMZ-13683",
  "amazon_order_reference_id": "P02-8165415-4325463",
  "errcode": -1,
  "errmsg": "OrderReference P02-8165415-4325463 is not in draft state and cannot be modified with the request submitted by you."
}
