2017-01-19 14:55:20.2160 INFO Execute Payment Controller
2017-01-19 14:55:57.8481 INFO Execute Payment Controller
2017-01-19 15:12:57.3384 ERROR A network-related or instance-specific error occurred while establishing a connection to SQL Server. The server was not found or was not accessible. Verify that the instance name is correct and that SQL Server is configured to allow remote connections. (provider: Named Pipes Provider, error: 40 - Could not open a connection to SQL Server)
