2017-07-31 13:45:27.4149 INFO Client Token Controller
2017-07-31 13:45:47.3500 INFO Client Token Controller
2017-07-31 13:48:34.6453 INFO Client Token Controller
2017-07-31 13:48:58.2165 INFO Client Token Controller
2017-07-31 14:25:45.5549 INFO Execute Payment Controller
2017-07-31 14:25:46.3648 INFO Input : {
  "amount": 1.0,
  "amazon_order_reference_id": "S02-0013504-5798888",
  "mobileno": null,
  "country": "uk",
  "currency": null,
  "account_type": null,
  "email": null,
  "ip_payment_agent": null,
  "ip_payment_client": null,
  "last6digitccno": null,
  "csreasoncode": null,
  "productcode": null
}
2017-07-31 14:25:47.8221 ERROR When using the multi-mapping APIs ensure you set the splitOn param if you have keys other than Id
Parameter name: splitOn
2017-07-31 14:26:25.6716 ERROR Could not load file or assembly 'Common.Logging, Version=2.0.0.0, Culture=neutral, PublicKeyToken=af08829b84f0328e' or one of its dependencies. The system cannot find the file specified.
2017-07-31 14:28:04.3566 INFO Execute Payment Controller
2017-07-31 14:28:06.3704 INFO Input : {
  "amount": 1.0,
  "amazon_order_reference_id": "S02-0013504-5798888",
  "mobileno": null,
  "country": "uk",
  "currency": null,
  "account_type": null,
  "email": null,
  "ip_payment_agent": null,
  "ip_payment_client": null,
  "last6digitccno": null,
  "csreasoncode": null,
  "productcode": null
}
2017-07-31 14:29:19.6623 ERROR String reference not set to an instance of a String.
Parameter name: s
2017-07-31 14:31:46.7704 INFO Execute Payment Controller
2017-07-31 14:32:49.9848 ERROR String reference not set to an instance of a String.
Parameter name: s
2017-07-31 14:33:31.2469 INFO Execute Payment Controller
2017-07-31 14:33:59.2195 ERROR Object reference not set to an instance of an object.
2017-07-31 14:37:17.2310 INFO Execute Payment Controller
2017-07-31 14:38:56.2052 INFO Execute Payment Controller
2017-07-31 14:49:39.4479 INFO Execute Payment Controller
2017-07-31 14:57:56.9493 INFO Execute Payment Controller
2017-07-31 14:58:22.8541 ERROR InvalidOrderReferenceId-The OrderReferenceId S02-0013504-5798888s is invalid.
2017-07-31 15:11:15.3886 INFO Execute Payment Controller
2017-07-31 16:15:07.8603 INFO Execute Payment Controller
2017-07-31 16:16:51.7448 INFO Execute Payment Controller
2017-07-31 16:16:55.9894 INFO PaymentConfigInfo : {
  "sitecode": "MCM",
  "payment_agent": "PP",
  "payment_mode": "PPP",
  "iccid": null,
  "brand_type": "VMUK",
  "brand": 1,
  "currency": "GBP",
  "orderid": "31919",
  "errcode": 0,
  "errmsg": "Success"
}
2017-07-31 16:17:38.0808 INFO orderId : VMUK-WEB-1-AMZ-31919
2017-07-31 16:17:48.7046 ERROR SetOrderReferenceDetails API call Failed
{
  "ErrorResponse": {
    "@xmlns": "http://mws.amazonservices.com/schema/OffAmazonPayments/2013-01-01",
    "Error": {
      "Type": "Sender",
      "Code": "OrderReferenceNotModifiable",
      "Message": "OrderReference S02-0013504-5798888 is not in draft state and cannot be modified with the request submitted by you."
    },
    "RequestId": "0b245af1-17d7-4749-90bd-4e0813b34451"
  }
}
2017-07-31 16:17:53.3735 ERROR OrderReferenceNotModifiable-OrderReference S02-0013504-5798888 is not in draft state and cannot be modified with the request submitted by you.
2017-07-31 16:19:04.8953 INFO Execute Payment Controller
2017-07-31 16:19:08.3201 INFO PaymentConfigInfo : {
  "sitecode": "MCM",
  "payment_agent": "PP",
  "payment_mode": "PPP",
  "iccid": null,
  "brand_type": "VMUK",
  "brand": 1,
  "currency": "GBP",
  "orderid": "31920",
  "errcode": 0,
  "errmsg": "Success"
}
2017-07-31 16:19:09.6535 INFO orderId : VMUK-WEB-1-AMZ-31920
2017-07-31 16:19:39.9535 DEBUG SetOrderReferenceDetails API call Failed
{
  "ErrorResponse": {
    "@xmlns": "http://mws.amazonservices.com/schema/OffAmazonPayments/2013-01-01",
    "Error": {
      "Type": "Sender",
      "Code": "OrderReferenceNotModifiable",
      "Message": "OrderReference S02-0013504-5798888 is not in draft state and cannot be modified with the request submitted by you."
    },
    "RequestId": "0b245af1-17d7-4749-90bd-4e0813b34451"
  }
}
2017-07-31 16:19:51.3609 DEBUG {
  "GetOrderReferenceDetailsResponse": {
    "@xmlns": "http://mws.amazonservices.com/schema/OffAmazonPayments/2013-01-01",
    "GetOrderReferenceDetailsResult": {
      "OrderReferenceDetails": {
        "OrderReferenceStatus": {
          "State": "Draft"
        },
        "OrderLanguage": "en-GB",
        "ExpirationTimestamp": "2018-01-27T10:48:37.378Z",
        "IdList": null,
        "SellerOrderAttributes": {
          "SellerOrderId": "VMUK-WEB-1-AMZ-31920"
        },
        "OrderTotal": {
          "CurrencyCode": "GBP",
          "Amount": "1.00"
        },
        "ReleaseEnvironment": "Sandbox",
        "SellerNote": "Vectone Mobile",
        "AmazonOrderReferenceId": "S02-8869746-5952680",
        "CreationTimestamp": "2017-07-31T10:48:37.378Z",
        "RequestPaymentAuthorization": "false"
      }
    },
    "ResponseMetadata": {
      "RequestId": "bce679a2-425e-47c4-8d64-12930766861f"
    }
  }
}
2017-07-31 16:20:34.2737 INFO Input : {
  "amount": 1.0,
  "amazon_order_reference_id": "S02-8869746-5952680",
  "mobileno": "447451103513",
  "country": "uk",
  "currency": null,
  "account_type": "1",
  "email": null,
  "ip_payment_agent": null,
  "ip_payment_client": null,
  "last6digitccno": null,
  "csreasoncode": null,
  "productcode": null
}
