02/08/2018 09:24:58 => Enrollment_Authorize()
02/08/2018 09:25:33 => Authorize()
02/08/2018 09:25:58 => with 3DS
02/08/2018 09:25:58 => Error Result :Failed calling realex service, Card expiry year is too far into the past.
02/08/2018 09:25:58 => result : -1:-1:Failed calling realex service, Card expiry year is too far into the past.

02/08/2018 09:33:49 => Enrollment_Authorize()
02/08/2018 09:34:38 => Authorize()
02/08/2018 09:35:03 => with 3DS
02/08/2018 09:35:03 => Error Result :Failed calling realex service, Card expiry year is too far into the past.
02/08/2018 09:35:03 => result : -1:-1:Failed calling realex service, Card expiry year is too far into the past.

02/08/2018 09:35:17 => Enrollment_Authorize()
02/08/2018 09:35:44 => Authorize()
02/08/2018 09:36:09 => with 3DS
02/08/2018 09:36:09 => Error Result :Failed calling realex service, Card expiry year is too far into the past.
02/08/2018 09:36:09 => result : -1:-1:Failed calling realex service, Card expiry year is too far into the past.

02/08/2018 09:37:47 => Enrollment_Authorize()
02/08/2018 09:38:05 => Authorize()
02/08/2018 09:38:29 => with 3DS
02/08/2018 09:38:30 => Error Result :Failed calling realex service, Card expiry year is too far into the past.
02/08/2018 09:38:30 => result : -1:-1:Failed calling realex service, Card expiry year is too far into the past.

02/08/2018 09:38:55 => Enrollment_Authorize()
02/08/2018 09:49:55 => Authorize()
02/08/2018 09:49:56 => Error Result :Object '/e111ff01_608d_43a5_8103_917fe968743b/5+j1uajspprfp6zz1om+hlhv_89.rem' has been disconnected or does not exist at the server.
02/08/2018 09:49:56 => Exception : Object '/e111ff01_608d_43a5_8103_917fe968743b/5+j1uajspprfp6zz1om+hlhv_89.rem' has been disconnected or does not exist at the server.
