2017-08-31 15:34:40.6411 INFO Execute Payment Controller
2017-08-31 15:34:41.4247 INFO Input : {
  "amount": 5.00,
  "nonce": "b4b84c7b-db19-006c-82b1-8e817cbc094d",
  "mobileno": "447574015869",
  "country": "UK",
  "currency": "GBP",
  "account_type": "1",
  "email": "desa69@gmail.com",
  "ip_payment_agent": "213.205.192.8",
  "ip_payment_client": "213.205.192.8",
  "last6digitccno": null,
  "csreasoncode": null,
  "productcode": null,
  "autotopup": null,
  "devicetype": null
}
2017-08-31 15:34:44.2658 INFO PaymentConfigInfo : {
  "sitecode": "MCM",
  "payment_agent": "PP",
  "payment_mode": "PPP",
  "iccid": null,
  "brand_type": "DMUK",
  "brand": 2,
  "currency": "GBP",
  "orderid": "37809",
  "errcode": 0,
  "errmsg": "Success"
}
2017-08-31 15:35:16.2610 ERROR Object reference not set to an instance of an object.
