2017-01-30 19:33:06.5083 INFO Execute Payment Controller
2017-01-30 19:33:33.8463 INFO amount : 1, nonce:f056f664-858b-002a-2ea0-a8e89ae8133f, country:UK, mobileno:0284184, account_type:2, email:a.dhakshinamoorthy@mundio.com, currency:GBP
2017-01-30 19:34:08.1903 INFO orderId : CTPGBP-WEB-1-PPL-1903
2017-01-30 19:34:19.1353 INFO 5q28wxg0
2017-01-30 19:37:46.9663 INFO amount : 1, nonce:f056f664-858b-002a-2ea0-a8e89ae8133f, country:UK, mobileno:0284184, account_type:2, email:a.dhakshinamoorthy@mundio.com, currency:GBP
2017-01-30 19:37:54.2643 INFO orderId : CTPGBP-WEB-1-PPL-1908
2017-01-30 19:42:24.1133 ERROR INSERT statement conflicted with COLUMN FOREIGN KEY constraint 'FK_TPAYMENT_REFERENCE_REF_SERV'. The conflict occurred in database 'Payment', table 'REF_SERVICE_TYPE', column 'SERVICE_TYPE'.
The statement has been terminated.
2017-01-30 19:47:19.9733 INFO Execute Payment Controller
2017-01-30 19:47:32.7193 INFO amount : 1, nonce:95d7975c-9a55-0982-2907-194f25b9c085, country:UK, mobileno:0284184, account_type:2, email:a.dhakshinamoorthy@mundio.com, currency:GBP
2017-01-30 19:47:42.6463 INFO orderId : CTPGBP-WEB-1-PPL-1909
2017-01-30 19:47:52.4673 INFO r7xgjc05
