2019-02-11 15:16:28.7600 INFO Execute Payment Controller
2019-02-11 15:16:29.6514 INFO Input : {
  "amount": 3.50,
  "nonce": "109eb4d0-d244-0a56-8ede-f63cec59da5b",
  "mobileno": "FREE SIM with Bundle",
  "country": "UK",
  "currency": "GBP",
  "account_type": "1",
  "email": "r.lokananth@mundio.com",
  "ip_payment_agent": "127.0.0.1",
  "ip_payment_client": "127.0.0.1",
  "last6digitccno": null,
  "csreasoncode": null,
  "productcode": "SIM-BUN",
  "autotopup": true,
  "devicetype": null
}
2019-02-11 15:16:43.9876 INFO PaymentConfigInfo : {
  "sitecode": "MCM",
  "payment_agent": "PP",
  "payment_mode": "PPP",
  "iccid": null,
  "brand_type": "VMUK",
  "brand": 1,
  "currency": "GBP",
  "orderid": "108999",
  "errcode": 0,
  "errmsg": "Success"
}
2019-02-11 15:17:02.6239 INFO orderId : VMUK-SIM-BUN-3.50-PPL-108999
2019-02-11 15:17:10.3080 INFO resultCustomer : {
  "CreditCardVerification": null,
  "Transaction": null,
  "Subscription": null,
  "Errors": null,
  "Parameters": null,
  "Message": null,
  "Target": {
    "Id": "1158053511",
    "FirstName": null,
    "LastName": null,
    "Company": null,
    "Email": null,
    "Phone": null,
    "Fax": null,
    "Website": null,
    "CreatedAt": "2019-02-11T09:47:08Z",
    "UpdatedAt": "2019-02-11T09:47:08Z",
    "CreditCards": [],
    "PayPalAccounts": [
      {
        "Email": "finance@mundio.com",
        "BillingAgreementId": "B-0PS52565MP3842834",
        "Token": "4xgncc8",
        "IsDefault": true,
        "ImageUrl": "https://assets.braintreegateway.com/payment_method_logo/paypal.png?environment=production",
        "CustomerId": "1158053511",
        "CreatedAt": "2019-02-11T09:47:08Z",
        "UpdatedAt": "2019-02-11T09:47:08Z",
        "Subscriptions": []
      }
    ],
    "ApplePayCards": [],
    "AndroidPayCards": [],
    "AmexExpressCheckoutCards": [],
    "CoinbaseAccounts": [],
    "VenmoAccounts": [],
    "UsBankAccounts": [],
    "PaymentMethods": [
      {
        "Email": "finance@mundio.com",
        "BillingAgreementId": "B-0PS52565MP3842834",
        "Token": "4xgncc8",
        "IsDefault": true,
        "ImageUrl": "https://assets.braintreegateway.com/payment_method_logo/paypal.png?environment=production",
        "CustomerId": "1158053511",
        "CreatedAt": "2019-02-11T09:47:08Z",
        "UpdatedAt": "2019-02-11T09:47:08Z",
        "Subscriptions": []
      }
    ],
    "Addresses": [],
    "CustomFields": {},
    "DefaultPaymentMethod": {
      "Email": "finance@mundio.com",
      "BillingAgreementId": "B-0PS52565MP3842834",
      "Token": "4xgncc8",
      "IsDefault": true,
      "ImageUrl": "https://assets.braintreegateway.com/payment_method_logo/paypal.png?environment=production",
      "CustomerId": "1158053511",
      "CreatedAt": "2019-02-11T09:47:08Z",
      "UpdatedAt": "2019-02-11T09:47:08Z",
      "Subscriptions": []
    }
  }
}
2019-02-11 15:20:22.2696 INFO request : {
  "CreditCard": null,
  "Amount": 3.50,
  "DeviceData": null,
  "DeviceSessionId": null,
  "FraudMerchantId": null,
  "Channel": null,
  "OrderId": "VMUK-SIM-BUN-3.50-PPL-108999",
  "Recurring": null,
  "TransactionSource": null,
  "MerchantAccountId": "GBP",
  "PurchaseOrderNumber": null,
  "Customer": null,
  "Descriptor": null,
  "Industry": null,
  "BillingAddress": null,
  "ShippingAddress": null,
  "PayPalAccount": null,
  "TaxAmount": null,
  "TaxExempt": null,
  "Type": null,
  "CustomFields": {},
  "Options": {
    "HoldInEscrow": null,
    "StoreInVault": null,
    "StoreInVaultOnSuccess": null,
    "AddBillingAddressToPaymentMethod": null,
    "StoreShippingAddressInVault": null,
    "SubmitForSettlement": true,
    "VenmoSdkSession": null,
    "PayeeEmail": null,
    "PayPal": null,
    "ThreeDSecure": null,
    "AmexRewards": null
  },
  "ThreeDSecurePassThru": null,
  "PaymentMethodToken": "4xgncc8",
  "CustomerId": null,
  "ShippingAddressId": null,
  "BillingAddressId": null,
  "VenmoSdkPaymentMethodCode": null,
  "PaymentMethodNonce": null,
  "ServiceFeeAmount": null,
  "SharedPaymentMethodToken": null,
  "SharedCustomerId": null,
  "SharedShippingAddressId": null,
  "SharedBillingAddressId": null,
  "ThreeDSecureToken": null,
  "RiskData": null
}
2019-02-11 15:20:44.5521 INFO response : {
  "CreditCardVerification": null,
  "Transaction": null,
  "Subscription": null,
  "Errors": null,
  "Parameters": null,
  "Message": null,
  "Target": {
    "Id": "cf85dg6k",
    "AddOns": [],
    "Amount": 3.50,
    "AvsErrorResponseCode": null,
    "AvsPostalCodeResponseCode": "I",
    "AvsStreetAddressResponseCode": "I",
    "BillingAddress": {
      "Id": null,
      "CustomerId": null,
      "FirstName": null,
      "LastName": null,
      "Company": null,
      "StreetAddress": null,
      "ExtendedAddress": null,
      "Locality": null,
      "Region": null,
      "PostalCode": null,
      "CountryCodeAlpha2": null,
      "CountryCodeAlpha3": null,
      "CountryCodeNumeric": null,
      "CountryName": null,
      "CreatedAt": null,
      "UpdatedAt": null
    },
    "Channel": null,
    "CreatedAt": "2019-02-11T09:50:24Z",
    "CreditCard": {
      "Bin": null,
      "CardholderName": null,
      "CardType": {},
      "CreatedAt": null,
      "CustomerId": null,
      "IsDefault": null,
      "IsVenmoSdk": false,
      "IsExpired": null,
      "CustomerLocation": {},
      "LastFour": null,
      "UniqueNumberIdentifier": null,
      "Subscriptions": [],
      "Token": "4xgncc8",
      "UpdatedAt": null,
      "BillingAddress": {
        "Id": null,
        "CustomerId": null,
        "FirstName": null,
        "LastName": null,
        "Company": null,
        "StreetAddress": null,
        "ExtendedAddress": null,
        "Locality": null,
        "Region": null,
        "PostalCode": null,
        "CountryCodeAlpha2": null,
        "CountryCodeAlpha3": null,
        "CountryCodeNumeric": null,
        "CountryName": null,
        "CreatedAt": null,
        "UpdatedAt": null
      },
      "ExpirationMonth": null,
      "ExpirationYear": null,
      "Prepaid": {},
      "Payroll": {},
      "Debit": {},
      "Commercial": {},
      "Healthcare": {},
      "DurbinRegulated": {},
      "ImageUrl": "https://assets.braintreegateway.com/payment_method_logo/unknown.png?environment=production",
      "Verification": null,
      "CountryOfIssuance": "Unknown",
      "IssuingBank": "Unknown",
      "ProductId": "Unknown",
      "ExpirationDate": "/",
      "MaskedNumber": "******"
    },
    "CurrencyIsoCode": "GBP",
    "Customer": {
      "Id": "1158053511",
      "FirstName": null,
      "LastName": null,
      "Company": null,
      "Email": null,
      "Phone": null,
      "Fax": null,
      "Website": null,
      "CreatedAt": null,
      "UpdatedAt": null,
      "CreditCards": [],
      "PayPalAccounts": [],
      "ApplePayCards": [],
      "AndroidPayCards": [],
      "AmexExpressCheckoutCards": [],
      "CoinbaseAccounts": [],
      "VenmoAccounts": [],
      "UsBankAccounts": [],
      "PaymentMethods": [],
      "Addresses": [],
      "CustomFields": null,
      "DefaultPaymentMethod": null
    },
    "CvvResponseCode": "I",
    "Descriptor": {
      "Name": null,
      "Phone": null,
      "Url": null
    },
    "Discounts": [],
    "Disputes": [],
    "GatewayRejectionReason": {},
    "MerchantAccountId": "GBP",
    "OrderId": "VMUK-SIM-BUN-3.50-PPL-108999",
    "PlanId": null,
    "ProcessorAuthorizationCode": null,
    "ProcessorResponseCode": "1000",
    "ProcessorResponseText": "Approved",
    "ProcessorSettlementResponseCode": "4000",
    "ProcessorSettlementResponseText": "Confirmed",
    "AdditionalProcessorResponse": null,
    "VoiceReferralNumber": null,
    "PurchaseOrderNumber": null,
    "Recurring": false,
    "RefundedTransactionId": null,
    "RefundId": null,
    "RefundIds": [],
    "PartialSettlementTransactionIds": [],
    "AuthorizedTransactionId": null,
    "SettlementBatchId": "2019-02-11_GBP_p5dcxn4k",
    "ShippingAddress": {
      "Id": null,
      "CustomerId": null,
      "FirstName": null,
      "LastName": null,
      "Company": null,
      "StreetAddress": null,
      "ExtendedAddress": null,
      "Locality": null,
      "Region": null,
      "PostalCode": null,
      "CountryCodeAlpha2": null,
      "CountryCodeAlpha3": null,
      "CountryCodeNumeric": null,
      "CountryName": null,
      "CreatedAt": null,
      "UpdatedAt": null
    },
    "EscrowStatus": {},
    "Status": {},
    "StatusHistory": [
      {
        "Amount": 3.50,
        "Status": {},
        "Timestamp": "2019-02-11T09:50:26Z",
        "Source": {},
        "User": null
      },
      {
        "Amount": 3.50,
        "Status": {},
        "Timestamp": "2019-02-11T09:50:26Z",
        "Source": {},
        "User": null
      },
      {
        "Amount": 3.50,
        "Status": {},
        "Timestamp": "2019-02-11T09:50:26Z",
        "Source": {},
        "User": null
      }
    ],
    "SubscriptionId": null,
    "Subscription": {
      "Balance": null,
      "AddOns": [],
      "BillingDayOfMonth": null,
      "BillingPeriodEndDate": null,
      "BillingPeriodStartDate": null,
      "CurrentBillingCycle": null,
      "DaysPastDue": null,
      "Descriptor": {
        "Name": null,
        "Phone": null,
        "Url": null
      },
      "Discounts": [],
      "FailureCount": null,
      "FirstBillingDate": null,
      "CreatedAt": null,
      "UpdatedAt": null,
      "HasTrialPeriod": null,
      "Id": null,
      "NeverExpires": null,
      "NextBillAmount": null,
      "NextBillingDate": null,
      "NextBillingPeriodAmount": null,
      "NumberOfBillingCycles": null,
      "PaidThroughDate": null,
      "PaymentMethodToken": null,
      "PlanId": null,
      "Price": null,
      "StatusHistory": [],
      "Status": {},
      "Transactions": [],
      "TrialDuration": null,
      "TrialDurationUnit": null,
      "MerchantAccountId": null
    },
    "TaxAmount": null,
    "TaxExempt": false,
    "Type": {},
    "UpdatedAt": "2019-02-11T09:50:26Z",
    "CustomFields": {},
    "ServiceFeeAmount": null,
    "DisbursementDetails": {
      "SettlementAmount": null,
      "SettlementCurrencyIsoCode": null,
      "SettlementCurrencyExchangeRate": null,
      "FundsHeld": null,
      "Success": null,
      "DisbursementDate": null
    },
    "ApplePayDetails": null,
    "AndroidPayDetails": null,
    "AmexExpressCheckoutDetails": null,
    "PayPalDetails": {
      "PayerEmail": "finance@mundio.com",
      "PaymentId": "PAYID-LRQUKYI9RH68307M7399115F",
      "AuthorizationId": "2LM8959548957073V",
      "Token": "4xgncc8",
      "ImageUrl": "https://assets.braintreegateway.com/payment_method_logo/paypal.png?environment=production",
      "DebugId": "a841e267134e4",
      "PayeeEmail": null,
      "CustomField": null,
      "PayerId": "QVFURW6PKMUB2",
      "PayerFirstName": "GOBINATH",
      "PayerLastName": "SOMASUNDARAM",
      "SellerProtectionStatus": "INELIGIBLE",
      "CaptureId": "2LM8959548957073V",
      "RefundId": null,
      "TransactionFeeAmount": "0.25",
      "TransactionFeeCurrencyIsoCode": "GBP",
      "Description": null
    },
    "CoinbaseDetails": null,
    "VenmoAccountDetails": null,
    "UsBankAccountDetails": null,
    "PaymentInstrumentType": {},
    "RiskData": null,
    "ThreeDSecureInfo": null
  }
}
2019-02-11 15:20:47.1290 INFO transaction : {
  "Id": "cf85dg6k",
  "AddOns": [],
  "Amount": 3.50,
  "AvsErrorResponseCode": null,
  "AvsPostalCodeResponseCode": "I",
  "AvsStreetAddressResponseCode": "I",
  "BillingAddress": {
    "Id": null,
    "CustomerId": null,
    "FirstName": null,
    "LastName": null,
    "Company": null,
    "StreetAddress": null,
    "ExtendedAddress": null,
    "Locality": null,
    "Region": null,
    "PostalCode": null,
    "CountryCodeAlpha2": null,
    "CountryCodeAlpha3": null,
    "CountryCodeNumeric": null,
    "CountryName": null,
    "CreatedAt": null,
    "UpdatedAt": null
  },
  "Channel": null,
  "CreatedAt": "2019-02-11T09:50:24Z",
  "CreditCard": {
    "Bin": null,
    "CardholderName": null,
    "CardType": {},
    "CreatedAt": null,
    "CustomerId": null,
    "IsDefault": null,
    "IsVenmoSdk": false,
    "IsExpired": null,
    "CustomerLocation": {},
    "LastFour": null,
    "UniqueNumberIdentifier": null,
    "Subscriptions": [],
    "Token": "4xgncc8",
    "UpdatedAt": null,
    "BillingAddress": {
      "Id": null,
      "CustomerId": null,
      "FirstName": null,
      "LastName": null,
      "Company": null,
      "StreetAddress": null,
      "ExtendedAddress": null,
      "Locality": null,
      "Region": null,
      "PostalCode": null,
      "CountryCodeAlpha2": null,
      "CountryCodeAlpha3": null,
      "CountryCodeNumeric": null,
      "CountryName": null,
      "CreatedAt": null,
      "UpdatedAt": null
    },
    "ExpirationMonth": null,
    "ExpirationYear": null,
    "Prepaid": {},
    "Payroll": {},
    "Debit": {},
    "Commercial": {},
    "Healthcare": {},
    "DurbinRegulated": {},
    "ImageUrl": "https://assets.braintreegateway.com/payment_method_logo/unknown.png?environment=production",
    "Verification": null,
    "CountryOfIssuance": "Unknown",
    "IssuingBank": "Unknown",
    "ProductId": "Unknown",
    "ExpirationDate": "/",
    "MaskedNumber": "******"
  },
  "CurrencyIsoCode": "GBP",
  "Customer": {
    "Id": "1158053511",
    "FirstName": null,
    "LastName": null,
    "Company": null,
    "Email": null,
    "Phone": null,
    "Fax": null,
    "Website": null,
    "CreatedAt": null,
    "UpdatedAt": null,
    "CreditCards": [],
    "PayPalAccounts": [],
    "ApplePayCards": [],
    "AndroidPayCards": [],
    "AmexExpressCheckoutCards": [],
    "CoinbaseAccounts": [],
    "VenmoAccounts": [],
    "UsBankAccounts": [],
    "PaymentMethods": [],
    "Addresses": [],
    "CustomFields": null,
    "DefaultPaymentMethod": null
  },
  "CvvResponseCode": "I",
  "Descriptor": {
    "Name": null,
    "Phone": null,
    "Url": null
  },
  "Discounts": [],
  "Disputes": [],
  "GatewayRejectionReason": {},
  "MerchantAccountId": "GBP",
  "OrderId": "VMUK-SIM-BUN-3.50-PPL-108999",
  "PlanId": null,
  "ProcessorAuthorizationCode": null,
  "ProcessorResponseCode": "1000",
  "ProcessorResponseText": "Approved",
  "ProcessorSettlementResponseCode": "4000",
  "ProcessorSettlementResponseText": "Confirmed",
  "AdditionalProcessorResponse": null,
  "VoiceReferralNumber": null,
  "PurchaseOrderNumber": null,
  "Recurring": false,
  "RefundedTransactionId": null,
  "RefundId": null,
  "RefundIds": [],
  "PartialSettlementTransactionIds": [],
  "AuthorizedTransactionId": null,
  "SettlementBatchId": "2019-02-11_GBP_p5dcxn4k",
  "ShippingAddress": {
    "Id": null,
    "CustomerId": null,
    "FirstName": null,
    "LastName": null,
    "Company": null,
    "StreetAddress": null,
    "ExtendedAddress": null,
    "Locality": null,
    "Region": null,
    "PostalCode": null,
    "CountryCodeAlpha2": null,
    "CountryCodeAlpha3": null,
    "CountryCodeNumeric": null,
    "CountryName": null,
    "CreatedAt": null,
    "UpdatedAt": null
  },
  "EscrowStatus": {},
  "Status": {},
  "StatusHistory": [
    {
      "Amount": 3.50,
      "Status": {},
      "Timestamp": "2019-02-11T09:50:26Z",
      "Source": {},
      "User": null
    },
    {
      "Amount": 3.50,
      "Status": {},
      "Timestamp": "2019-02-11T09:50:26Z",
      "Source": {},
      "User": null
    },
    {
      "Amount": 3.50,
      "Status": {},
      "Timestamp": "2019-02-11T09:50:26Z",
      "Source": {},
      "User": null
    }
  ],
  "SubscriptionId": null,
  "Subscription": {
    "Balance": null,
    "AddOns": [],
    "BillingDayOfMonth": null,
    "BillingPeriodEndDate": null,
    "BillingPeriodStartDate": null,
    "CurrentBillingCycle": null,
    "DaysPastDue": null,
    "Descriptor": {
      "Name": null,
      "Phone": null,
      "Url": null
    },
    "Discounts": [],
    "FailureCount": null,
    "FirstBillingDate": null,
    "CreatedAt": null,
    "UpdatedAt": null,
    "HasTrialPeriod": null,
    "Id": null,
    "NeverExpires": null,
    "NextBillAmount": null,
    "NextBillingDate": null,
    "NextBillingPeriodAmount": null,
    "NumberOfBillingCycles": null,
    "PaidThroughDate": null,
    "PaymentMethodToken": null,
    "PlanId": null,
    "Price": null,
    "StatusHistory": [],
    "Status": {},
    "Transactions": [],
    "TrialDuration": null,
    "TrialDurationUnit": null,
    "MerchantAccountId": null
  },
  "TaxAmount": null,
  "TaxExempt": false,
  "Type": {},
  "UpdatedAt": "2019-02-11T09:50:26Z",
  "CustomFields": {},
  "ServiceFeeAmount": null,
  "DisbursementDetails": {
    "SettlementAmount": null,
    "SettlementCurrencyIsoCode": null,
    "SettlementCurrencyExchangeRate": null,
    "FundsHeld": null,
    "Success": null,
    "DisbursementDate": null
  },
  "ApplePayDetails": null,
  "AndroidPayDetails": null,
  "AmexExpressCheckoutDetails": null,
  "PayPalDetails": {
    "PayerEmail": "finance@mundio.com",
    "PaymentId": "PAYID-LRQUKYI9RH68307M7399115F",
    "AuthorizationId": "2LM8959548957073V",
    "Token": "4xgncc8",
    "ImageUrl": "https://assets.braintreegateway.com/payment_method_logo/paypal.png?environment=production",
    "DebugId": "a841e267134e4",
    "PayeeEmail": null,
    "CustomField": null,
    "PayerId": "QVFURW6PKMUB2",
    "PayerFirstName": "GOBINATH",
    "PayerLastName": "SOMASUNDARAM",
    "SellerProtectionStatus": "INELIGIBLE",
    "CaptureId": "2LM8959548957073V",
    "RefundId": null,
    "TransactionFeeAmount": "0.25",
    "TransactionFeeCurrencyIsoCode": "GBP",
    "Description": null
  },
  "CoinbaseDetails": null,
  "VenmoAccountDetails": null,
  "UsBankAccountDetails": null,
  "PaymentInstrumentType": {},
  "RiskData": null,
  "ThreeDSecureInfo": null
}
2019-02-11 15:20:55.3544 INFO Output : {"transaction_id":"cf85dg6k","order_id":"VMUK-SIM-BUN-3.50-PPL-108999","errcode":0,"errmsg":"Transaction Succeeded."}
