2017-08-01 19:47:26.8465 INFO AutoRenew Controller
2017-08-01 19:47:27.4642 INFO Input : {
  "subscription_id": "2mcz4p",
  "amount": "5",
  "currency": "EUR",
  "country": "UK",
  "referencecode": "VMUK-AUT005-PPL-1674453",
  "accountid": "436889351601",
  "sitecode": "VMUK",
  "product_code": "UKTOPUP",
  "application_code": "VMUK",
  "payment_agent": "VMUK",
  "service_type": "MVNO",
  "payment_mode": "DEF",
  "client_ip": "192.168.2.183",
  "email": "v.sabarisaravanan@mundio.com",
  "account_type": "1",
  "last6digitccno": null
}
2017-08-01 19:47:29.5219 INFO orderId : VMUK-AUT005-PPL-1674453
2017-08-01 19:47:43.4319 INFO result : {
  "CreditCardVerification": null,
  "Transaction": {
    "Id": "6kqfa3rb",
    "AddOns": [],
    "Amount": 5.00,
    "AvsErrorResponseCode": null,
    "AvsPostalCodeResponseCode": "I",
    "AvsStreetAddressResponseCode": "I",
    "BillingAddress": {
      "Id": null,
      "CustomerId": null,
      "FirstName": null,
      "LastName": null,
      "Company": null,
      "StreetAddress": null,
      "ExtendedAddress": null,
      "Locality": null,
      "Region": null,
      "PostalCode": null,
      "CountryCodeAlpha2": null,
      "CountryCodeAlpha3": null,
      "CountryCodeNumeric": null,
      "CountryName": null,
      "CreatedAt": null,
      "UpdatedAt": null
    },
    "Channel": null,
    "CreatedAt": "2017-08-01T14:17:32Z",
    "CreditCard": {
      "Bin": null,
      "CardholderName": null,
      "CardType": {},
      "CreatedAt": null,
      "CustomerId": null,
      "IsDefault": null,
      "IsVenmoSdk": false,
      "IsExpired": null,
      "CustomerLocation": {},
      "LastFour": null,
      "UniqueNumberIdentifier": null,
      "Subscriptions": [],
      "Token": "2mcz4p",
      "UpdatedAt": null,
      "BillingAddress": {
        "Id": null,
        "CustomerId": null,
        "FirstName": null,
        "LastName": null,
        "Company": null,
        "StreetAddress": null,
        "ExtendedAddress": null,
        "Locality": null,
        "Region": null,
        "PostalCode": null,
        "CountryCodeAlpha2": null,
        "CountryCodeAlpha3": null,
        "CountryCodeNumeric": null,
        "CountryName": null,
        "CreatedAt": null,
        "UpdatedAt": null
      },
      "ExpirationMonth": null,
      "ExpirationYear": null,
      "Prepaid": {},
      "Payroll": {},
      "Debit": {},
      "Commercial": {},
      "Healthcare": {},
      "DurbinRegulated": {},
      "ImageUrl": "https://assets.braintreegateway.com/payment_method_logo/unknown.png?environment=sandbox",
      "Verification": null,
      "CountryOfIssuance": "Unknown",
      "IssuingBank": "Unknown",
      "ProductId": "Unknown",
      "ExpirationDate": "/",
      "MaskedNumber": "******"
    },
    "CurrencyIsoCode": "GBP",
    "Customer": {
      "Id": "254872396",
      "FirstName": null,
      "LastName": null,
      "Company": null,
      "Email": null,
      "Phone": null,
      "Fax": null,
      "Website": null,
      "CreatedAt": null,
      "UpdatedAt": null,
      "CreditCards": [],
      "PayPalAccounts": [],
      "ApplePayCards": [],
      "AndroidPayCards": [],
      "AmexExpressCheckoutCards": [],
      "CoinbaseAccounts": [],
      "VenmoAccounts": [],
      "UsBankAccounts": [],
      "PaymentMethods": [],
      "Addresses": [],
      "CustomFields": null,
      "DefaultPaymentMethod": null
    },
    "CvvResponseCode": "I",
    "Descriptor": {
      "Name": null,
      "Phone": null,
      "Url": null
    },
    "Discounts": [],
    "Disputes": [],
    "GatewayRejectionReason": {},
    "MerchantAccountId": "GBP",
    "OrderId": "VMUK-AUT005-PPL-1674453",
    "PlanId": null,
    "ProcessorAuthorizationCode": null,
    "ProcessorResponseCode": "2069",
    "ProcessorResponseText": "PayPal Blocking Duplicate Order IDs",
    "ProcessorSettlementResponseCode": null,
    "ProcessorSettlementResponseText": null,
    "AdditionalProcessorResponse": "2069 : ",
    "VoiceReferralNumber": null,
    "PurchaseOrderNumber": null,
    "Recurring": false,
    "RefundedTransactionId": null,
    "RefundId": null,
    "RefundIds": [],
    "PartialSettlementTransactionIds": [],
    "AuthorizedTransactionId": null,
    "SettlementBatchId": null,
    "ShippingAddress": {
      "Id": null,
      "CustomerId": null,
      "FirstName": null,
      "LastName": null,
      "Company": null,
      "StreetAddress": null,
      "ExtendedAddress": null,
      "Locality": null,
      "Region": null,
      "PostalCode": null,
      "CountryCodeAlpha2": null,
      "CountryCodeAlpha3": null,
      "CountryCodeNumeric": null,
      "CountryName": null,
      "CreatedAt": null,
      "UpdatedAt": null
    },
    "EscrowStatus": {},
    "Status": {},
    "StatusHistory": [
      {
        "Amount": 5.00,
        "Status": {},
        "Timestamp": "2017-08-01T14:17:38Z",
        "Source": {},
        "User": null
      }
    ],
    "SubscriptionId": null,
    "Subscription": {
      "Balance": null,
      "AddOns": [],
      "BillingDayOfMonth": null,
      "BillingPeriodEndDate": null,
      "BillingPeriodStartDate": null,
      "CurrentBillingCycle": null,
      "DaysPastDue": null,
      "Descriptor": {
        "Name": null,
        "Phone": null,
        "Url": null
      },
      "Discounts": [],
      "FailureCount": null,
      "FirstBillingDate": null,
      "CreatedAt": null,
      "UpdatedAt": null,
      "HasTrialPeriod": null,
      "Id": null,
      "NeverExpires": null,
      "NextBillAmount": null,
      "NextBillingDate": null,
      "NextBillingPeriodAmount": null,
      "NumberOfBillingCycles": null,
      "PaidThroughDate": null,
      "PaymentMethodToken": null,
      "PlanId": null,
      "Price": null,
      "StatusHistory": [],
      "Status": {},
      "Transactions": [],
      "TrialDuration": null,
      "TrialDurationUnit": null,
      "MerchantAccountId": null
    },
    "TaxAmount": null,
    "TaxExempt": false,
    "Type": {},
    "UpdatedAt": "2017-08-01T14:17:38Z",
    "CustomFields": {},
    "ServiceFeeAmount": null,
    "DisbursementDetails": {
      "SettlementAmount": null,
      "SettlementCurrencyIsoCode": null,
      "SettlementCurrencyExchangeRate": null,
      "FundsHeld": null,
      "Success": null,
      "DisbursementDate": null
    },
    "ApplePayDetails": null,
    "AndroidPayDetails": null,
    "AmexExpressCheckoutDetails": null,
    "PayPalDetails": {
      "PayerEmail": "financereconciliation-buyer-1@mundio.com",
      "PaymentId": null,
      "AuthorizationId": null,
      "Token": "2mcz4p",
      "ImageUrl": "https://assets.braintreegateway.com/payment_method_logo/paypal.png?environment=sandbox",
      "DebugId": "168ee3dd70f7a, 168ee3dd70f7a",
      "PayeeEmail": null,
      "CustomField": null,
      "PayerId": null,
      "PayerFirstName": null,
      "PayerLastName": null,
      "SellerProtectionStatus": null,
      "CaptureId": null,
      "RefundId": null,
      "TransactionFeeAmount": null,
      "TransactionFeeCurrencyIsoCode": null,
      "Description": null
    },
    "CoinbaseDetails": null,
    "VenmoAccountDetails": null,
    "UsBankAccountDetails": null,
    "PaymentInstrumentType": {},
    "RiskData": null,
    "ThreeDSecureInfo": null
  },
  "Subscription": null,
  "Errors": {
    "Count": 0,
    "DeepCount": 0
  },
  "Parameters": {
    "transaction[amount]": "5.00",
    "transaction[order_id]": "VMUK-AUT005-PPL-1674453",
    "transaction[payment_method_token]": "2mcz4p",
    "transaction[type]": "sale",
    "transaction[options][submit_for_settlement]": "true"
  },
  "Message": "PayPal Blocking Duplicate Order IDs",
  "Target": null
}
2017-08-01 19:48:14.5873 ERROR Object reference not set to an instance of an object.
2017-08-01 19:50:37.4152 INFO AutoRenew Controller
2017-08-01 19:50:37.4518 INFO Input : {
  "subscription_id": "2mcz4p",
  "amount": "5",
  "currency": "EUR",
  "country": "UK",
  "referencecode": "VMUK-AUT005-PPL-1674453",
  "accountid": "436889351601",
  "sitecode": "VMUK",
  "product_code": "UKTOPUP",
  "application_code": "VMUK",
  "payment_agent": "VMUK",
  "service_type": "MVNO",
  "payment_mode": "DEF",
  "client_ip": "192.168.2.183",
  "email": "v.sabarisaravanan@mundio.com",
  "account_type": "1",
  "last6digitccno": null
}
2017-08-01 19:50:37.4518 INFO orderId : VMUK-AUT005-PPL-1674453
2017-08-01 19:50:41.8414 INFO result : {
  "CreditCardVerification": null,
  "Transaction": {
    "Id": "mfv7pqyx",
    "AddOns": [],
    "Amount": 5.00,
    "AvsErrorResponseCode": null,
    "AvsPostalCodeResponseCode": "I",
    "AvsStreetAddressResponseCode": "I",
    "BillingAddress": {
      "Id": null,
      "CustomerId": null,
      "FirstName": null,
      "LastName": null,
      "Company": null,
      "StreetAddress": null,
      "ExtendedAddress": null,
      "Locality": null,
      "Region": null,
      "PostalCode": null,
      "CountryCodeAlpha2": null,
      "CountryCodeAlpha3": null,
      "CountryCodeNumeric": null,
      "CountryName": null,
      "CreatedAt": null,
      "UpdatedAt": null
    },
    "Channel": null,
    "CreatedAt": "2017-08-01T14:20:38Z",
    "CreditCard": {
      "Bin": null,
      "CardholderName": null,
      "CardType": {},
      "CreatedAt": null,
      "CustomerId": null,
      "IsDefault": null,
      "IsVenmoSdk": false,
      "IsExpired": null,
      "CustomerLocation": {},
      "LastFour": null,
      "UniqueNumberIdentifier": null,
      "Subscriptions": [],
      "Token": "2mcz4p",
      "UpdatedAt": null,
      "BillingAddress": {
        "Id": null,
        "CustomerId": null,
        "FirstName": null,
        "LastName": null,
        "Company": null,
        "StreetAddress": null,
        "ExtendedAddress": null,
        "Locality": null,
        "Region": null,
        "PostalCode": null,
        "CountryCodeAlpha2": null,
        "CountryCodeAlpha3": null,
        "CountryCodeNumeric": null,
        "CountryName": null,
        "CreatedAt": null,
        "UpdatedAt": null
      },
      "ExpirationMonth": null,
      "ExpirationYear": null,
      "Prepaid": {},
      "Payroll": {},
      "Debit": {},
      "Commercial": {},
      "Healthcare": {},
      "DurbinRegulated": {},
      "ImageUrl": "https://assets.braintreegateway.com/payment_method_logo/unknown.png?environment=sandbox",
      "Verification": null,
      "CountryOfIssuance": "Unknown",
      "IssuingBank": "Unknown",
      "ProductId": "Unknown",
      "ExpirationDate": "/",
      "MaskedNumber": "******"
    },
    "CurrencyIsoCode": "GBP",
    "Customer": {
      "Id": "254872396",
      "FirstName": null,
      "LastName": null,
      "Company": null,
      "Email": null,
      "Phone": null,
      "Fax": null,
      "Website": null,
      "CreatedAt": null,
      "UpdatedAt": null,
      "CreditCards": [],
      "PayPalAccounts": [],
      "ApplePayCards": [],
      "AndroidPayCards": [],
      "AmexExpressCheckoutCards": [],
      "CoinbaseAccounts": [],
      "VenmoAccounts": [],
      "UsBankAccounts": [],
      "PaymentMethods": [],
      "Addresses": [],
      "CustomFields": null,
      "DefaultPaymentMethod": null
    },
    "CvvResponseCode": "I",
    "Descriptor": {
      "Name": null,
      "Phone": null,
      "Url": null
    },
    "Discounts": [],
    "Disputes": [],
    "GatewayRejectionReason": {},
    "MerchantAccountId": "GBP",
    "OrderId": "VMUK-AUT005-PPL-1674453",
    "PlanId": null,
    "ProcessorAuthorizationCode": null,
    "ProcessorResponseCode": "2069",
    "ProcessorResponseText": "PayPal Blocking Duplicate Order IDs",
    "ProcessorSettlementResponseCode": null,
    "ProcessorSettlementResponseText": null,
    "AdditionalProcessorResponse": "2069 : ",
    "VoiceReferralNumber": null,
    "PurchaseOrderNumber": null,
    "Recurring": false,
    "RefundedTransactionId": null,
    "RefundId": null,
    "RefundIds": [],
    "PartialSettlementTransactionIds": [],
    "AuthorizedTransactionId": null,
    "SettlementBatchId": null,
    "ShippingAddress": {
      "Id": null,
      "CustomerId": null,
      "FirstName": null,
      "LastName": null,
      "Company": null,
      "StreetAddress": null,
      "ExtendedAddress": null,
      "Locality": null,
      "Region": null,
      "PostalCode": null,
      "CountryCodeAlpha2": null,
      "CountryCodeAlpha3": null,
      "CountryCodeNumeric": null,
      "CountryName": null,
      "CreatedAt": null,
      "UpdatedAt": null
    },
    "EscrowStatus": {},
    "Status": {},
    "StatusHistory": [
      {
        "Amount": 5.00,
        "Status": {},
        "Timestamp": "2017-08-01T14:20:41Z",
        "Source": {},
        "User": null
      }
    ],
    "SubscriptionId": null,
    "Subscription": {
      "Balance": null,
      "AddOns": [],
      "BillingDayOfMonth": null,
      "BillingPeriodEndDate": null,
      "BillingPeriodStartDate": null,
      "CurrentBillingCycle": null,
      "DaysPastDue": null,
      "Descriptor": {
        "Name": null,
        "Phone": null,
        "Url": null
      },
      "Discounts": [],
      "FailureCount": null,
      "FirstBillingDate": null,
      "CreatedAt": null,
      "UpdatedAt": null,
      "HasTrialPeriod": null,
      "Id": null,
      "NeverExpires": null,
      "NextBillAmount": null,
      "NextBillingDate": null,
      "NextBillingPeriodAmount": null,
      "NumberOfBillingCycles": null,
      "PaidThroughDate": null,
      "PaymentMethodToken": null,
      "PlanId": null,
      "Price": null,
      "StatusHistory": [],
      "Status": {},
      "Transactions": [],
      "TrialDuration": null,
      "TrialDurationUnit": null,
      "MerchantAccountId": null
    },
    "TaxAmount": null,
    "TaxExempt": false,
    "Type": {},
    "UpdatedAt": "2017-08-01T14:20:41Z",
    "CustomFields": {},
    "ServiceFeeAmount": null,
    "DisbursementDetails": {
      "SettlementAmount": null,
      "SettlementCurrencyIsoCode": null,
      "SettlementCurrencyExchangeRate": null,
      "FundsHeld": null,
      "Success": null,
      "DisbursementDate": null
    },
    "ApplePayDetails": null,
    "AndroidPayDetails": null,
    "AmexExpressCheckoutDetails": null,
    "PayPalDetails": {
      "PayerEmail": "financereconciliation-buyer-1@mundio.com",
      "PaymentId": null,
      "AuthorizationId": null,
      "Token": "2mcz4p",
      "ImageUrl": "https://assets.braintreegateway.com/payment_method_logo/paypal.png?environment=sandbox",
      "DebugId": "3450e81c49d15, 3450e81c49d15",
      "PayeeEmail": null,
      "CustomField": null,
      "PayerId": null,
      "PayerFirstName": null,
      "PayerLastName": null,
      "SellerProtectionStatus": null,
      "CaptureId": null,
      "RefundId": null,
      "TransactionFeeAmount": null,
      "TransactionFeeCurrencyIsoCode": null,
      "Description": null
    },
    "CoinbaseDetails": null,
    "VenmoAccountDetails": null,
    "UsBankAccountDetails": null,
    "PaymentInstrumentType": {},
    "RiskData": null,
    "ThreeDSecureInfo": null
  },
  "Subscription": null,
  "Errors": {
    "Count": 0,
    "DeepCount": 0
  },
  "Parameters": {
    "transaction[amount]": "5.00",
    "transaction[order_id]": "VMUK-AUT005-PPL-1674453",
    "transaction[payment_method_token]": "2mcz4p",
    "transaction[type]": "sale",
    "transaction[options][submit_for_settlement]": "true"
  },
  "Message": "PayPal Blocking Duplicate Order IDs",
  "Target": null
}
2017-08-01 19:50:41.8414 ERROR Object reference not set to an instance of an object.
2017-08-01 19:57:37.7758 INFO AutoRenew Controller
2017-08-01 19:57:37.7758 INFO Input : {
  "subscription_id": "2mcz4p",
  "amount": "5",
  "currency": "EUR",
  "country": "UK",
  "referencecode": "VMUK-AUT005-PPL-1674453",
  "accountid": "436889351601",
  "sitecode": "VMUK",
  "product_code": "UKTOPUP",
  "application_code": "VMUK",
  "payment_agent": "VMUK",
  "service_type": "MVNO",
  "payment_mode": "DEF",
  "client_ip": "192.168.2.183",
  "email": "v.sabarisaravanan@mundio.com",
  "account_type": "1",
  "last6digitccno": null
}
2017-08-01 19:57:37.7758 INFO orderId : VMUK-AUT005-PPL-1674453
2017-08-01 19:57:41.9803 INFO result : {
  "CreditCardVerification": null,
  "Transaction": {
    "Id": "k36ynr17",
    "AddOns": [],
    "Amount": 5.00,
    "AvsErrorResponseCode": null,
    "AvsPostalCodeResponseCode": "I",
    "AvsStreetAddressResponseCode": "I",
    "BillingAddress": {
      "Id": null,
      "CustomerId": null,
      "FirstName": null,
      "LastName": null,
      "Company": null,
      "StreetAddress": null,
      "ExtendedAddress": null,
      "Locality": null,
      "Region": null,
      "PostalCode": null,
      "CountryCodeAlpha2": null,
      "CountryCodeAlpha3": null,
      "CountryCodeNumeric": null,
      "CountryName": null,
      "CreatedAt": null,
      "UpdatedAt": null
    },
    "Channel": null,
    "CreatedAt": "2017-08-01T14:27:39Z",
    "CreditCard": {
      "Bin": null,
      "CardholderName": null,
      "CardType": {},
      "CreatedAt": null,
      "CustomerId": null,
      "IsDefault": null,
      "IsVenmoSdk": false,
      "IsExpired": null,
      "CustomerLocation": {},
      "LastFour": null,
      "UniqueNumberIdentifier": null,
      "Subscriptions": [],
      "Token": "2mcz4p",
      "UpdatedAt": null,
      "BillingAddress": {
        "Id": null,
        "CustomerId": null,
        "FirstName": null,
        "LastName": null,
        "Company": null,
        "StreetAddress": null,
        "ExtendedAddress": null,
        "Locality": null,
        "Region": null,
        "PostalCode": null,
        "CountryCodeAlpha2": null,
        "CountryCodeAlpha3": null,
        "CountryCodeNumeric": null,
        "CountryName": null,
        "CreatedAt": null,
        "UpdatedAt": null
      },
      "ExpirationMonth": null,
      "ExpirationYear": null,
      "Prepaid": {},
      "Payroll": {},
      "Debit": {},
      "Commercial": {},
      "Healthcare": {},
      "DurbinRegulated": {},
      "ImageUrl": "https://assets.braintreegateway.com/payment_method_logo/unknown.png?environment=sandbox",
      "Verification": null,
      "CountryOfIssuance": "Unknown",
      "IssuingBank": "Unknown",
      "ProductId": "Unknown",
      "ExpirationDate": "/",
      "MaskedNumber": "******"
    },
    "CurrencyIsoCode": "GBP",
    "Customer": {
      "Id": "254872396",
      "FirstName": null,
      "LastName": null,
      "Company": null,
      "Email": null,
      "Phone": null,
      "Fax": null,
      "Website": null,
      "CreatedAt": null,
      "UpdatedAt": null,
      "CreditCards": [],
      "PayPalAccounts": [],
      "ApplePayCards": [],
      "AndroidPayCards": [],
      "AmexExpressCheckoutCards": [],
      "CoinbaseAccounts": [],
      "VenmoAccounts": [],
      "UsBankAccounts": [],
      "PaymentMethods": [],
      "Addresses": [],
      "CustomFields": null,
      "DefaultPaymentMethod": null
    },
    "CvvResponseCode": "I",
    "Descriptor": {
      "Name": null,
      "Phone": null,
      "Url": null
    },
    "Discounts": [],
    "Disputes": [],
    "GatewayRejectionReason": {},
    "MerchantAccountId": "GBP",
    "OrderId": "VMUK-AUT005-PPL-1674453",
    "PlanId": null,
    "ProcessorAuthorizationCode": null,
    "ProcessorResponseCode": "2069",
    "ProcessorResponseText": "PayPal Blocking Duplicate Order IDs",
    "ProcessorSettlementResponseCode": null,
    "ProcessorSettlementResponseText": null,
    "AdditionalProcessorResponse": "2069 : ",
    "VoiceReferralNumber": null,
    "PurchaseOrderNumber": null,
    "Recurring": false,
    "RefundedTransactionId": null,
    "RefundId": null,
    "RefundIds": [],
    "PartialSettlementTransactionIds": [],
    "AuthorizedTransactionId": null,
    "SettlementBatchId": null,
    "ShippingAddress": {
      "Id": null,
      "CustomerId": null,
      "FirstName": null,
      "LastName": null,
      "Company": null,
      "StreetAddress": null,
      "ExtendedAddress": null,
      "Locality": null,
      "Region": null,
      "PostalCode": null,
      "CountryCodeAlpha2": null,
      "CountryCodeAlpha3": null,
      "CountryCodeNumeric": null,
      "CountryName": null,
      "CreatedAt": null,
      "UpdatedAt": null
    },
    "EscrowStatus": {},
    "Status": {},
    "StatusHistory": [
      {
        "Amount": 5.00,
        "Status": {},
        "Timestamp": "2017-08-01T14:27:41Z",
        "Source": {},
        "User": null
      }
    ],
    "SubscriptionId": null,
    "Subscription": {
      "Balance": null,
      "AddOns": [],
      "BillingDayOfMonth": null,
      "BillingPeriodEndDate": null,
      "BillingPeriodStartDate": null,
      "CurrentBillingCycle": null,
      "DaysPastDue": null,
      "Descriptor": {
        "Name": null,
        "Phone": null,
        "Url": null
      },
      "Discounts": [],
      "FailureCount": null,
      "FirstBillingDate": null,
      "CreatedAt": null,
      "UpdatedAt": null,
      "HasTrialPeriod": null,
      "Id": null,
      "NeverExpires": null,
      "NextBillAmount": null,
      "NextBillingDate": null,
      "NextBillingPeriodAmount": null,
      "NumberOfBillingCycles": null,
      "PaidThroughDate": null,
      "PaymentMethodToken": null,
      "PlanId": null,
      "Price": null,
      "StatusHistory": [],
      "Status": {},
      "Transactions": [],
      "TrialDuration": null,
      "TrialDurationUnit": null,
      "MerchantAccountId": null
    },
    "TaxAmount": null,
    "TaxExempt": false,
    "Type": {},
    "UpdatedAt": "2017-08-01T14:27:41Z",
    "CustomFields": {},
    "ServiceFeeAmount": null,
    "DisbursementDetails": {
      "SettlementAmount": null,
      "SettlementCurrencyIsoCode": null,
      "SettlementCurrencyExchangeRate": null,
      "FundsHeld": null,
      "Success": null,
      "DisbursementDate": null
    },
    "ApplePayDetails": null,
    "AndroidPayDetails": null,
    "AmexExpressCheckoutDetails": null,
    "PayPalDetails": {
      "PayerEmail": "financereconciliation-buyer-1@mundio.com",
      "PaymentId": null,
      "AuthorizationId": null,
      "Token": "2mcz4p",
      "ImageUrl": "https://assets.braintreegateway.com/payment_method_logo/paypal.png?environment=sandbox",
      "DebugId": "4d8f3feda093e, 4d8f3feda093e",
      "PayeeEmail": null,
      "CustomField": null,
      "PayerId": null,
      "PayerFirstName": null,
      "PayerLastName": null,
      "SellerProtectionStatus": null,
      "CaptureId": null,
      "RefundId": null,
      "TransactionFeeAmount": null,
      "TransactionFeeCurrencyIsoCode": null,
      "Description": null
    },
    "CoinbaseDetails": null,
    "VenmoAccountDetails": null,
    "UsBankAccountDetails": null,
    "PaymentInstrumentType": {},
    "RiskData": null,
    "ThreeDSecureInfo": null
  },
  "Subscription": null,
  "Errors": {
    "Count": 0,
    "DeepCount": 0
  },
  "Parameters": {
    "transaction[amount]": "5.00",
    "transaction[order_id]": "VMUK-AUT005-PPL-1674453",
    "transaction[payment_method_token]": "2mcz4p",
    "transaction[type]": "sale",
    "transaction[options][submit_for_settlement]": "true"
  },
  "Message": "PayPal Blocking Duplicate Order IDs",
  "Target": null
}
2017-08-01 19:57:41.9803 ERROR Object reference not set to an instance of an object.
2017-08-01 19:58:55.3576 INFO AutoRenew Controller
2017-08-01 19:58:56.6672 INFO Input : {
  "subscription_id": "2mcz4p",
  "amount": "5",
  "currency": "EUR",
  "country": "UK",
  "referencecode": "VMUK-AUT005-PPL-1674453",
  "accountid": "436889351601",
  "sitecode": "VMUK",
  "product_code": "UKTOPUP",
  "application_code": "VMUK",
  "payment_agent": "VMUK",
  "service_type": "MVNO",
  "payment_mode": "DEF",
  "client_ip": "192.168.2.183",
  "email": "v.sabarisaravanan@mundio.com",
  "account_type": "1",
  "last6digitccno": null
}
2017-08-01 19:58:57.7335 INFO orderId : VMUK-AUT005-PPL-1674453
2017-08-01 19:59:13.0185 INFO result : {
  "CreditCardVerification": null,
  "Transaction": {
    "Id": "7ja3q7vg",
    "AddOns": [],
    "Amount": 5.00,
    "AvsErrorResponseCode": null,
    "AvsPostalCodeResponseCode": "I",
    "AvsStreetAddressResponseCode": "I",
    "BillingAddress": {
      "Id": null,
      "CustomerId": null,
      "FirstName": null,
      "LastName": null,
      "Company": null,
      "StreetAddress": null,
      "ExtendedAddress": null,
      "Locality": null,
      "Region": null,
      "PostalCode": null,
      "CountryCodeAlpha2": null,
      "CountryCodeAlpha3": null,
      "CountryCodeNumeric": null,
      "CountryName": null,
      "CreatedAt": null,
      "UpdatedAt": null
    },
    "Channel": null,
    "CreatedAt": "2017-08-01T14:29:06Z",
    "CreditCard": {
      "Bin": null,
      "CardholderName": null,
      "CardType": {},
      "CreatedAt": null,
      "CustomerId": null,
      "IsDefault": null,
      "IsVenmoSdk": false,
      "IsExpired": null,
      "CustomerLocation": {},
      "LastFour": null,
      "UniqueNumberIdentifier": null,
      "Subscriptions": [],
      "Token": "2mcz4p",
      "UpdatedAt": null,
      "BillingAddress": {
        "Id": null,
        "CustomerId": null,
        "FirstName": null,
        "LastName": null,
        "Company": null,
        "StreetAddress": null,
        "ExtendedAddress": null,
        "Locality": null,
        "Region": null,
        "PostalCode": null,
        "CountryCodeAlpha2": null,
        "CountryCodeAlpha3": null,
        "CountryCodeNumeric": null,
        "CountryName": null,
        "CreatedAt": null,
        "UpdatedAt": null
      },
      "ExpirationMonth": null,
      "ExpirationYear": null,
      "Prepaid": {},
      "Payroll": {},
      "Debit": {},
      "Commercial": {},
      "Healthcare": {},
      "DurbinRegulated": {},
      "ImageUrl": "https://assets.braintreegateway.com/payment_method_logo/unknown.png?environment=sandbox",
      "Verification": null,
      "CountryOfIssuance": "Unknown",
      "IssuingBank": "Unknown",
      "ProductId": "Unknown",
      "ExpirationDate": "/",
      "MaskedNumber": "******"
    },
    "CurrencyIsoCode": "GBP",
    "Customer": {
      "Id": "254872396",
      "FirstName": null,
      "LastName": null,
      "Company": null,
      "Email": null,
      "Phone": null,
      "Fax": null,
      "Website": null,
      "CreatedAt": null,
      "UpdatedAt": null,
      "CreditCards": [],
      "PayPalAccounts": [],
      "ApplePayCards": [],
      "AndroidPayCards": [],
      "AmexExpressCheckoutCards": [],
      "CoinbaseAccounts": [],
      "VenmoAccounts": [],
      "UsBankAccounts": [],
      "PaymentMethods": [],
      "Addresses": [],
      "CustomFields": null,
      "DefaultPaymentMethod": null
    },
    "CvvResponseCode": "I",
    "Descriptor": {
      "Name": null,
      "Phone": null,
      "Url": null
    },
    "Discounts": [],
    "Disputes": [],
    "GatewayRejectionReason": {},
    "MerchantAccountId": "GBP",
    "OrderId": "VMUK-AUT005-PPL-1674453",
    "PlanId": null,
    "ProcessorAuthorizationCode": null,
    "ProcessorResponseCode": "2069",
    "ProcessorResponseText": "PayPal Blocking Duplicate Order IDs",
    "ProcessorSettlementResponseCode": null,
    "ProcessorSettlementResponseText": null,
    "AdditionalProcessorResponse": "2069 : ",
    "VoiceReferralNumber": null,
    "PurchaseOrderNumber": null,
    "Recurring": false,
    "RefundedTransactionId": null,
    "RefundId": null,
    "RefundIds": [],
    "PartialSettlementTransactionIds": [],
    "AuthorizedTransactionId": null,
    "SettlementBatchId": null,
    "ShippingAddress": {
      "Id": null,
      "CustomerId": null,
      "FirstName": null,
      "LastName": null,
      "Company": null,
      "StreetAddress": null,
      "ExtendedAddress": null,
      "Locality": null,
      "Region": null,
      "PostalCode": null,
      "CountryCodeAlpha2": null,
      "CountryCodeAlpha3": null,
      "CountryCodeNumeric": null,
      "CountryName": null,
      "CreatedAt": null,
      "UpdatedAt": null
    },
    "EscrowStatus": {},
    "Status": {},
    "StatusHistory": [
      {
        "Amount": 5.00,
        "Status": {},
        "Timestamp": "2017-08-01T14:29:09Z",
        "Source": {},
        "User": null
      }
    ],
    "SubscriptionId": null,
    "Subscription": {
      "Balance": null,
      "AddOns": [],
      "BillingDayOfMonth": null,
      "BillingPeriodEndDate": null,
      "BillingPeriodStartDate": null,
      "CurrentBillingCycle": null,
      "DaysPastDue": null,
      "Descriptor": {
        "Name": null,
        "Phone": null,
        "Url": null
      },
      "Discounts": [],
      "FailureCount": null,
      "FirstBillingDate": null,
      "CreatedAt": null,
      "UpdatedAt": null,
      "HasTrialPeriod": null,
      "Id": null,
      "NeverExpires": null,
      "NextBillAmount": null,
      "NextBillingDate": null,
      "NextBillingPeriodAmount": null,
      "NumberOfBillingCycles": null,
      "PaidThroughDate": null,
      "PaymentMethodToken": null,
      "PlanId": null,
      "Price": null,
      "StatusHistory": [],
      "Status": {},
      "Transactions": [],
      "TrialDuration": null,
      "TrialDurationUnit": null,
      "MerchantAccountId": null
    },
    "TaxAmount": null,
    "TaxExempt": false,
    "Type": {},
    "UpdatedAt": "2017-08-01T14:29:09Z",
    "CustomFields": {},
    "ServiceFeeAmount": null,
    "DisbursementDetails": {
      "SettlementAmount": null,
      "SettlementCurrencyIsoCode": null,
      "SettlementCurrencyExchangeRate": null,
      "FundsHeld": null,
      "Success": null,
      "DisbursementDate": null
    },
    "ApplePayDetails": null,
    "AndroidPayDetails": null,
    "AmexExpressCheckoutDetails": null,
    "PayPalDetails": {
      "PayerEmail": "financereconciliation-buyer-1@mundio.com",
      "PaymentId": null,
      "AuthorizationId": null,
      "Token": "2mcz4p",
      "ImageUrl": "https://assets.braintreegateway.com/payment_method_logo/paypal.png?environment=sandbox",
      "DebugId": "47a47df5e015, 47a47df5e015",
      "PayeeEmail": null,
      "CustomField": null,
      "PayerId": null,
      "PayerFirstName": null,
      "PayerLastName": null,
      "SellerProtectionStatus": null,
      "CaptureId": null,
      "RefundId": null,
      "TransactionFeeAmount": null,
      "TransactionFeeCurrencyIsoCode": null,
      "Description": null
    },
    "CoinbaseDetails": null,
    "VenmoAccountDetails": null,
    "UsBankAccountDetails": null,
    "PaymentInstrumentType": {},
    "RiskData": null,
    "ThreeDSecureInfo": null
  },
  "Subscription": null,
  "Errors": {
    "Count": 0,
    "DeepCount": 0
  },
  "Parameters": {
    "transaction[amount]": "5.00",
    "transaction[order_id]": "VMUK-AUT005-PPL-1674453",
    "transaction[payment_method_token]": "2mcz4p",
    "transaction[type]": "sale",
    "transaction[options][submit_for_settlement]": "true"
  },
  "Message": "PayPal Blocking Duplicate Order IDs",
  "Target": null
}
2017-08-01 20:09:43.7610 ERROR Object reference not set to an instance of an object.
