2018-09-26 22:03:09.3051 INFO Process Started
2018-09-26 22:03:09.3688 INFO docName : E:\Moorthy\UserHome\RegBundleAutomatedReportExe\RegBunAutoRepConsole\RegBunAutoRep\bin\Debug\XLSX\Bundle Report(All Countries)_25Sep2018_2203.xlsx
2018-09-26 22:03:09.6505 INFO FillUKRecord()
2018-09-26 22:03:29.0830 INFO Process Started
2018-09-26 22:03:29.1191 INFO docName : E:\Moorthy\UserHome\RegBundleAutomatedReportExe\RegBunAutoRepConsole\RegBunAutoRep\bin\Debug\XLSX\Bundle Report(All Countries)_25Sep2018_2203.xlsx
2018-09-26 22:03:29.1753 ERROR The file 'E:\Moorthy\UserHome\RegBundleAutomatedReportExe\RegBunAutoRepConsole\RegBunAutoRep\bin\Debug\XLSX\Bundle Report(All Countries)_25Sep2018_2203.xlsx' already exists.
2018-09-26 22:03:29.1753 INFO Process Completed
2018-09-26 22:03:35.3332 INFO Process Started
2018-09-26 22:03:37.0541 INFO docName : E:\Moorthy\UserHome\RegBundleAutomatedReportExe\RegBunAutoRepConsole\RegBunAutoRep\bin\Debug\XLSX\Bundle Report(All Countries)_25Sep2018_2203.xlsx
2018-09-26 22:03:38.5854 ERROR The file 'E:\Moorthy\UserHome\RegBundleAutomatedReportExe\RegBunAutoRepConsole\RegBunAutoRep\bin\Debug\XLSX\Bundle Report(All Countries)_25Sep2018_2203.xlsx' already exists.
2018-09-26 22:03:38.5854 INFO Process Completed
2018-09-26 22:03:43.1628 INFO Process Started
2018-09-26 22:03:47.7447 INFO docName : E:\Moorthy\UserHome\RegBundleAutomatedReportExe\RegBunAutoRepConsole\RegBunAutoRep\bin\Debug\XLSX\Bundle Report(All Countries)_25Sep2018_2203.xlsx
2018-09-26 22:04:17.1510 INFO Process Started
2018-09-26 22:04:17.8601 INFO docName : E:\Moorthy\UserHome\RegBundleAutomatedReportExe\RegBunAutoRepConsole\RegBunAutoRep\bin\Debug\XLSX\Bundle Report(All Countries)_25Sep2018_2204.xlsx
2018-09-26 22:04:17.9184 INFO FillATRecord()
2018-09-26 22:04:21.9286 INFO No Of Records found : 122
2018-09-26 22:05:09.3233 DEBUG Email Send : Success
2018-09-26 22:05:09.3323 INFO Process Completed
