2018-12-04 19:30:24.9559 INFO Process Started
2018-12-04 19:30:26.5181 INFO docName : E:\Moorthy\UserHome\TariffAutomationReports\TariffAutomationReportsConsole\TariffAutomationReportsConsole\bin\Debug\XLSX\TariffAutomation_Minutes_Summary_Allcountry_03Dec2018_1930.xlsx
2018-12-04 19:30:26.7698 INFO TariffAutomationUKMinutesCountrywise()
2018-12-04 19:30:35.9680 INFO No of records : 64
2018-12-04 19:30:36.1010 INFO TariffAutomationUKMinutesSummary()
2018-12-04 19:31:36.3368 INFO No of records : 16
2018-12-04 19:31:36.3639 INFO TariffAutomationATMinutesCountrywise()
2018-12-04 19:31:41.8829 INFO No of records : 70
2018-12-04 19:31:41.9879 INFO TariffAutomationATMinutesSummary()
2018-12-04 19:32:00.9633 INFO No of records : 16
2018-12-04 19:32:01.0510 INFO TariffAutomationBEMinutesCountrywise()
2018-12-04 19:32:03.8955 INFO No of records : 51
2018-12-04 19:32:03.9271 INFO TariffAutomationBEMinutesSummary()
2018-12-04 19:32:12.5367 INFO No of records : 16
2018-12-04 19:32:12.5646 INFO TariffAutomationFRMinutesCountrywise()
2018-12-04 19:32:15.1622 INFO No of records : 42
2018-12-04 19:32:15.2310 INFO TariffAutomationFRMinutesSummary()
2018-12-04 19:32:17.8691 INFO No of records : 16
2018-12-04 19:32:19.7839 DEBUG Email Send : Success
2018-12-04 19:32:19.8567 INFO docName2 : E:\Moorthy\UserHome\TariffAutomationReports\TariffAutomationReportsConsole\TariffAutomationReportsConsole\bin\Debug\XLSX\TariffAutomation_Minutes_Summary_DMAT_03Dec2018_1932.xlsx
2018-12-04 19:32:19.8637 INFO TariffAutomationDMATMinutesCountrywise()
2018-12-04 19:32:22.2686 INFO No of records : 45
2018-12-04 19:32:22.2973 INFO TariffAutomationDMATMinutesSummary()
2018-12-04 19:35:09.9086 INFO No of records : 16
2018-12-04 19:35:09.9724 ERROR Failure sending mail.
2018-12-04 19:35:10.0162 DEBUG Email Send : Failure
2018-12-04 19:35:11.3750 INFO docName3 : E:\Moorthy\UserHome\TariffAutomationReports\TariffAutomationReportsConsole\TariffAutomationReportsConsole\bin\Debug\XLSX\Chillitalk_calling_card_Currency_minutes_summary_03Dec2018_1935.xlsx
2018-12-04 19:35:12.0313 INFO TariffAutomationCallingCardMinutesCountrywise()
2018-12-04 19:35:14.3139 INFO No of records : 16
2018-12-04 19:35:16.6145 INFO TariffAutomationcallingcardMinutesSummary()
2018-12-04 19:35:17.9642 INFO No of records : 8
2018-12-04 19:35:24.4553 DEBUG Email Send : Success
2018-12-04 19:35:24.4553 INFO Process Completed
